12345,Tom,Black,300.00,19980130
23456,Alice,Smith,1200.50,19980220
14567,Jane,White,900.00,19980701
43564,Weilin,Zhao,450.25,19980103
45432,Bina,Mehta,278.95,19980321
35612,David,Brown,237.56,20081010
35612,David,Brown,237.56,20081010
35612,David,Brown,237.56,20081010
